{
	"info": {
		"_postman_id": "2fc962de-a8c0-4564-a04b-53fd6a58104d",
		"name": "rafael-pokeapi",
		"schema": "https://schema.getpostman.com/json/collection/v2.1.0/collection.json",
		"_exporter_id": "969720",
		"_collection_link": "https://planetary-moon-682065.postman.co/workspace/product-api-company~02aa88e4-7a42-41c6-a54f-b3a4e733b39f/collection/969720-2fc962de-a8c0-4564-a04b-53fd6a58104d?action=share&source=collection_link&creator=969720"
	},
	"item": [
		{
			"name": "users",
			"item": [
				{
					"name": "favorites",
					"item": [
						{
							"name": "getUserPokemons",
							"request": {
								"auth": {
									"type": "bearer",
									"bearer": [
										{
											"key": "token",
											"value": "{{TOKEN}}",
											"type": "string"
										}
									]
								},
								"method": "GET",
								"header": [
									{
										"key": "Refresh-Token",
										"value": "{{REFRESH_TOKEN}}",
										"type": "text"
									}
								],
								"url": {
									"raw": "{{URL}}/api/user/favorites/:iduser",
									"host": [
										"{{URL}}"
									],
									"path": [
										"api",
										"user",
										"favorites",
										":iduser"
									],
									"query": [
										{
											"key": "",
											"value": "",
											"disabled": true
										}
									],
									"variable": [
										{
											"key": "iduser",
											"value": "64fd2aca57348079b1bb025c"
										}
									]
								}
							},
							"response": []
						},
						{
							"name": "addPokemonToUser",
							"request": {
								"auth": {
									"type": "bearer",
									"bearer": [
										{
											"key": "token",
											"value": "{{TOKEN}}",
											"type": "string"
										}
									]
								},
								"method": "POST",
								"header": [
									{
										"key": "Refresh-Token",
										"value": "{{REFRESH_TOKEN}}",
										"type": "text"
									}
								],
								"body": {
									"mode": "raw",
									"raw": "{\n    \"name\": \"pikachu\"\n}",
									"options": {
										"raw": {
											"language": "json"
										}
									}
								},
								"url": {
									"raw": "{{URL}}/api/user/favorites/:iduser",
									"host": [
										"{{URL}}"
									],
									"path": [
										"api",
										"user",
										"favorites",
										":iduser"
									],
									"query": [
										{
											"key": "",
											"value": "",
											"disabled": true
										}
									],
									"variable": [
										{
											"key": "iduser",
											"value": "64fd2aca57348079b1bb025c"
										}
									]
								}
							},
							"response": []
						},
						{
							"name": "removePokemonFromUser",
							"request": {
								"auth": {
									"type": "bearer",
									"bearer": [
										{
											"key": "token",
											"value": "{{TOKEN}}",
											"type": "string"
										}
									]
								},
								"method": "PATCH",
								"header": [
									{
										"key": "Refresh-Token",
										"value": "{{REFRESH_TOKEN}}",
										"type": "text"
									}
								],
								"body": {
									"mode": "raw",
									"raw": "{\n    \"name\": \"pikachu\"\n}",
									"options": {
										"raw": {
											"language": "json"
										}
									}
								},
								"url": {
									"raw": "{{URL}}/api/user/favorites/remove/:iduser",
									"host": [
										"{{URL}}"
									],
									"path": [
										"api",
										"user",
										"favorites",
										"remove",
										":iduser"
									],
									"query": [
										{
											"key": "",
											"value": "",
											"disabled": true
										}
									],
									"variable": [
										{
											"key": "iduser",
											"value": "64fd2aca57348079b1bb025c"
										}
									]
								}
							},
							"response": []
						}
					]
				},
				{
					"name": "login",
					"request": {
						"method": "POST",
						"header": [
							{
								"key": "Refresh-Token",
								"value": "",
								"type": "text"
							}
						],
						"body": {
							"mode": "raw",
							"raw": " {\n      \"email\": \"test5@example.com\",\n      \"password\": \"Pruebas123*\"\n    }",
							"options": {
								"raw": {
									"language": "json"
								}
							}
						},
						"url": {
							"raw": "{{URL}}/api/users/login",
							"host": [
								"{{URL}}"
							],
							"path": [
								"api",
								"users",
								"login"
							]
						}
					},
					"response": []
				},
				{
					"name": "Sign Up",
					"request": {
						"method": "POST",
						"header": [
							{
								"key": "Refresh-Token",
								"value": "",
								"type": "text"
							}
						],
						"body": {
							"mode": "raw",
							"raw": " {\n      \"username\": \"test5\",\n      \"password\": \"Pruebas123*\",\n      \"passwordConfirmation\": \"Pruebas123*\"\n    }",
							"options": {
								"raw": {
									"language": "json"
								}
							}
						},
						"url": {
							"raw": "{{URL}}/api/users/signup",
							"host": [
								"{{URL}}"
							],
							"path": [
								"api",
								"users",
								"signup"
							]
						}
					},
					"response": []
				},
				{
					"name": "Refresh Token",
					"request": {
						"method": "POST",
						"header": [
							{
								"key": "Refresh-Token",
								"value": "{{REFRESH_TOKEN}}",
								"type": "text"
							}
						],
						"body": {
							"mode": "raw",
							"raw": " {\n     \"refreshToken\": \"{{REFRESH_TOKEN}}\"\n    }",
							"options": {
								"raw": {
									"language": "json"
								}
							}
						},
						"url": {
							"raw": "{{URL}}/api/users/refresh-token",
							"host": [
								"{{URL}}"
							],
							"path": [
								"api",
								"users",
								"refresh-token"
							]
						}
					},
					"response": []
				},
				{
					"name": "getAll",
					"request": {
						"auth": {
							"type": "bearer",
							"bearer": [
								{
									"key": "token",
									"value": "{{TOKEN}}",
									"type": "string"
								}
							]
						},
						"method": "GET",
						"header": [
							{
								"key": "Refresh-Token",
								"value": "{{REFRESH_TOKEN}}",
								"type": "text"
							}
						],
						"url": {
							"raw": "{{URL}}/api/users",
							"host": [
								"{{URL}}"
							],
							"path": [
								"api",
								"users"
							],
							"query": [
								{
									"key": "",
									"value": "",
									"disabled": true
								}
							]
						}
					},
					"response": []
				},
				{
					"name": "findByUserName",
					"request": {
						"auth": {
							"type": "bearer",
							"bearer": [
								{
									"key": "token",
									"value": "{{TOKEN}}",
									"type": "string"
								}
							]
						},
						"method": "GET",
						"header": [],
						"url": {
							"raw": "{{URL}}/api/users/:username",
							"host": [
								"{{URL}}"
							],
							"path": [
								"api",
								"users",
								":username"
							],
							"variable": [
								{
									"key": "username",
									"value": ""
								}
							]
						}
					},
					"response": []
				},
				{
					"name": "getUser",
					"request": {
						"auth": {
							"type": "bearer",
							"bearer": [
								{
									"key": "token",
									"value": "{{TOKEN}}",
									"type": "string"
								}
							]
						},
						"method": "GET",
						"header": [
							{
								"key": "Refresh-Token",
								"value": "{{REFRESH_TOKEN}}",
								"type": "text"
							}
						],
						"url": {
							"raw": "{{URL}}/api/users/user",
							"host": [
								"{{URL}}"
							],
							"path": [
								"api",
								"users",
								"user"
							]
						}
					},
					"response": []
				}
			]
		},
		{
			"name": "pokemons",
			"item": [
				{
					"name": "create",
					"request": {
						"auth": {
							"type": "bearer",
							"bearer": [
								{
									"key": "token",
									"value": "{{TOKEN}}",
									"type": "string"
								}
							]
						},
						"method": "POST",
						"header": [
							{
								"key": "Refresh-Token",
								"value": "{{REFRESH_TOKEN}}",
								"type": "text"
							}
						],
						"body": {
							"mode": "raw",
							"raw": " {\n      \"name\": \"clefairy\"\n   \n    }",
							"options": {
								"raw": {
									"language": "json"
								}
							}
						},
						"url": {
							"raw": "{{URL}}/api/pokemons/create",
							"host": [
								"{{URL}}"
							],
							"path": [
								"api",
								"pokemons",
								"create"
							]
						}
					},
					"response": []
				},
				{
					"name": "DeletePokemon",
					"request": {
						"auth": {
							"type": "bearer",
							"bearer": [
								{
									"key": "token",
									"value": "{{TOKEN}}",
									"type": "string"
								}
							]
						},
						"method": "DELETE",
						"header": [
							{
								"key": "Refresh-Token",
								"value": "{{REFRESH_TOKEN}}",
								"type": "text"
							}
						],
						"body": {
							"mode": "raw",
							"raw": " {\n      \"name\": \"clefairy\"\n   \n    }",
							"options": {
								"raw": {
									"language": "json"
								}
							}
						},
						"url": {
							"raw": "{{URL}}/api/pokemons/:name",
							"host": [
								"{{URL}}"
							],
							"path": [
								"api",
								"pokemons",
								":name"
							],
							"variable": [
								{
									"key": "name",
									"value": "test"
								}
							]
						}
					},
					"response": []
				},
				{
					"name": "getAll",
					"request": {
						"auth": {
							"type": "bearer",
							"bearer": [
								{
									"key": "token",
									"value": "{{TOKEN}}",
									"type": "string"
								}
							]
						},
						"method": "GET",
						"header": [
							{
								"key": "Refresh-Token",
								"value": "{{REFRESH_TOKEN}}",
								"type": "text"
							}
						],
						"url": {
							"raw": "{{URL}}/api/pokemons",
							"host": [
								"{{URL}}"
							],
							"path": [
								"api",
								"pokemons"
							],
							"query": [
								{
									"key": "",
									"value": "",
									"disabled": true
								}
							]
						}
					},
					"response": []
				},
				{
					"name": "findByName",
					"request": {
						"auth": {
							"type": "bearer",
							"bearer": [
								{
									"key": "token",
									"value": "{{TOKEN}}",
									"type": "string"
								}
							]
						},
						"method": "GET",
						"header": [],
						"url": {
							"raw": "{{URL}}/api/pokemons/:name",
							"host": [
								"{{URL}}"
							],
							"path": [
								"api",
								"pokemons",
								":name"
							],
							"variable": [
								{
									"key": "name",
									"value": ""
								}
							]
						}
					},
					"response": []
				},
				{
					"name": "getPokemon",
					"request": {
						"auth": {
							"type": "bearer",
							"bearer": [
								{
									"key": "token",
									"value": "{{TOKEN}}",
									"type": "string"
								}
							]
						},
						"method": "GET",
						"header": [
							{
								"key": "Refresh-Token",
								"value": "{{REFRESH_TOKEN}}",
								"type": "text"
							}
						],
						"url": {
							"raw": "{{URL}}/api/pokemons/:id",
							"host": [
								"{{URL}}"
							],
							"path": [
								"api",
								"pokemons",
								":id"
							],
							"variable": [
								{
									"key": "id",
									"value": ""
								}
							]
						}
					},
					"response": []
				}
			]
		}
	]
}